[warp]
7
15
8
28
-35
-43
0
[/warp]
[npc]
Lugia
right
0
7
8
Lugia,70
1
-1
0
false
false
false
[/npc]
[npc]
Lugia
right
0
8
8
Lugia,70
1
-1
0
false
false
false
[/npc]