[npc]
Psychic Mark
left
321
19
13
Abra,13,Abra,13,Kadabra,15
3
-1
0
false
false
false
[/npc]
[npc]
Schoolboy Alan
down
261
43
8
Tangela,16
1
-1
0
false
false
false
[/npc]
[warp]
13
18
51
1
-5
-1
0
[/warp]
[warp]
41
16
9
2
-36
-49
0
[/warp]
[warp]
42
16
10
2
-36
-49
0
[/warp]
[hmobject]
CUT_TREE
31
9
[/hmobject]

