[npc]
crasher wake
down
244
18
3
Lunatone,60,Solrock,60,Xatu,60,Claydol,60
4
27
0
false
false
false
[/npc]
[warp]
18
47
5
27
41
-40
0
[/warp]
[warp]
19
47
5
27
41
-40
0
[/warp]