[npc]
Police Man
left
36
17
6
NULL
0
-1
12,13,14
false
false
false
[/npc]
[npc]
Gambler
right
161
4
10
NULL
0
-1
0
false
false
false
[/npc]
[npc]
Gambler
left
332
2
11
NULL
0
-1
1
false
false
false
[/npc]
[npc]
Gambler
left
365
2
13
NULL
0
-1
2
false
false
false
[/npc]
[npc]
Gambler
right
274
4
13
NULL
0
-1
3
false
false
false
[/npc]
[npc]
Gambler
left
382
7
12
NULL
0
-1
4,5
false
false
false
[/npc]
[npc]
Gambler
right
271
9
10
NULL
0
-1
6
false
false
false
[/npc]
[npc]
Gambler
left
280
12
10
NULL
0
-1
7
false
false
false
[/npc]
[npc]
Gambler
left
355
12
13
NULL
0
-1
8
false
false
false
[/npc]
[npc]
Receptionist
down
328
6
5
NULL
0
-1
9
false
false
false
[/npc]
[npc]
Coin Seller
down
279
9
5
NULL
0
-1
9
false
false
false
[/npc]
[npc]
NULL
down
0
9
6
NULL
0
-1
10
false
false
false
[/npc]
[npc]
NULL
down
0
6
6
NULL
0
-1
11
false
false
false
[/npc]
[warp]
4
18
34
22
12
15
0
[/warp]
[warp]
20
5
18
2
-50
-18
8
[/warp]


