[npc]
NULL
down
0
31
18
NULL
0
-1
0
false
false
false
[/npc]
[npc]
NULL
down
0
26
18
NULL
0
-1
1
false
false
false
[/npc]
[npc]
NULL
down
0
36
31
NULL
0
-1
2
false
false
false
[/npc]
[npc]
NULL
down
0
22
7
NULL
0
-1
3
false
false
false
[/npc]
[npc]
NULL
down
0
5
32
NULL
0
-1
4,5
false
false
false
[/npc]
[npc]
NULL
down
0
17
18
NULL
0
-1
6
false
false
false
[/npc]
[npc]
NULL
down
0
10
10
NULL
0
-1
7,8
false
false
false
[/npc]
[npc]
NULL
down
0
16
10
NULL
0
-1
13
false
false
false
[/npc]
[npc]
NULL
down
0
41
10
NULL
0
-1
12
false
false
false
[/npc]
[npc]
NULL
down
0
35
10
NULL
0
-1
11
false
false
false
[/npc]
[npc]
NULL
down
0
38
16
NULL
0
-1
9,10
false
false
false
[/npc]
[npc]
Ticket_Vendor
down
36
24
6
NULL
0
-1
15
false
false
false
[/npc]
[warp]
25
31
15
16
-44
-29
0
[/warp]
[warp]
10
15
5
7
-45
-29
0
[/warp]
[warp]
9
32
22
31
-48
-25
0
[/warp]
[warp]
19
31
5
7
-48
-35
0
[/warp]
[warp]
14
31
5
7
-48
-34
0
[/warp]
[warp]
38
31
4
7
-48
-36
0
[/warp]
[warp]
38
28
4
2
-48
-36
0
[/warp]
[warp]
39
28
4
2
-48
-36
0
[/warp]
[warp]
40
28
4
2
-48
-36
0
[/warp]
[warp]
33
31
7
9
-48
-37
0
[/warp]
[warp]
28
16
7
11
-48
-38
0
[/warp]
[warp]
24
5
25
30
16
0
0
[/warp]
[hmobject]
CUT_TREE
24
22
[/hmobject]
[hmobject]
CUT_TREE
32
16
[/hmobject]
[hmobject]
CUT_TREE
21
13
[/hmobject]
[hmobject]
CUT_TREE
30
10
[/hmobject]